{
    "gl-project": "tezos/tezos",
    "environments": {
        "push": {
            "CI_PROJECT_NAMESPACE": "nomadic-labs",
            "CI_DEFAULT_BRANCH": "master",
            "CI_PIPELINE_SOURCE": "push"
        },
        "before_merging": {
            "CI_PROJECT_NAMESPACE": "tezos",
            "CI_DEFAULT_BRANCH": "master",
            "CI_PIPELINE_SOURCE": "merge_request_event",

            "CI_COMMIT_BRANCH": "arvid@topic-branch"
        },
        "latest_release": {
            "CI_PROJECT_NAMESPACE": "tezos",
            "CI_DEFAULT_BRANCH": "master",
            "CI_PIPELINE_SOURCE": "push",

            "CI_COMMIT_BRANCH": "latest-release",
            "CI_COMMIT_REF_NAME": "latest-release"
        },
        "latest_release_test": {
            "CI_PROJECT_NAMESPACE": "nomadic-labs",
            "CI_DEFAULT_BRANCH": "master",
            "CI_PIPELINE_SOURCE": "push",

            "CI_COMMIT_BRANCH": "latest-release-test",
            "CI_COMMIT_REF_NAME": "latest-release-test"
        },
        "master_branch": {
            "CI_PROJECT_NAMESPACE": "tezos",
            "CI_DEFAULT_BRANCH": "master",
            "CI_PIPELINE_SOURCE": "push",

            "CI_COMMIT_BRANCH": "master"
        },
        "release_tag": {
            "CI_PROJECT_NAMESPACE": "tezos",
            "CI_DEFAULT_BRANCH": "master",
            "CI_PIPELINE_SOURCE": "push",

            "CI_COMMIT_TAG": "v12.0-rc4"
        },
        "beta_release_tag": {
            "CI_PROJECT_NAMESPACE": "tezos",
            "CI_DEFAULT_BRANCH": "master",
            "CI_PIPELINE_SOURCE": "push",

            "CI_COMMIT_TAG": "v12.0-beta4"
        },
        "release_tag_test": {
            "CI_PROJECT_NAMESPACE": "nomadic-labs",
            "CI_DEFAULT_BRANCH": "master",
            "CI_PIPELINE_SOURCE": "push",

            "CI_COMMIT_TAG": "v999.999"
        },
        "non_release_tag": {
            "CI_PROJECT_NAMESPACE": "tezos",
            "CI_DEFAULT_BRANCH": "master",
            "CI_PIPELINE_SOURCE": "push",

            "CI_COMMIT_TAG": "test-tag"
        },
        "non_release_tag_test": {
            "CI_PROJECT_NAMESPACE": "nomadic-labs",
            "CI_DEFAULT_BRANCH": "master",
            "CI_PIPELINE_SOURCE": "push",

            "CI_COMMIT_TAG": "test-tag"
        },
        "schedule_extended_test": {
            "CI_PROJECT_NAMESPACE": "tezos",
            "CI_DEFAULT_BRANCH": "master",
            "CI_PIPELINE_SOURCE": "schedule",

            "TZ_SCHEDULE_KIND": "EXTENDED_TESTS",
            "CI_COMMIT_BRANCH": "master"
        }
    }
}
